<?xml version="1.0" encoding="UTF-8" standalone="no"?>
<!DOCTYPE svg PUBLIC "-//W3C//DTD SVG 1.1//EN" "http://www.w3.org/Graphics/SVG/1.1/DTD/svg11.dtd">
<svg width="100%" height="100%" viewBox="0 0 250 250" version="1.1" xmlns="http://www.w3.org/2000/svg" xmlns:xlink="http://www.w3.org/1999/xlink" xml:space="preserve" xmlns:serif="http://www.serif.com/" style="fill-rule:evenodd;clip-rule:evenodd;stroke-linecap:round;stroke-linejoin:round;stroke-miterlimit:1.5;">
    <g transform="matrix(1,0,0,1,-2869.65,-7822.22)">
        <g transform="matrix(1,0,0,1,2604.93,7822.54)">
            <g transform="matrix(0.231481,0,0,0.231481,265.978,-0.316257)">
                <g transform="matrix(2.22979,0,0,2.22979,-3485.86,-2989.08)">
                    <rect x="1560.88" y="1340.53" width="484.351" height="484.351" style="fill:none;"/>
                </g>
                <g transform="matrix(-0.757867,0,0,0.764472,955.315,75.0602)">
                    <path d="M1022.37,529.427L1039.3,529.427C1049.26,529.427 1057.35,537.515 1057.35,547.477C1057.35,557.439 1049.26,565.527 1039.3,565.527L999.203,565.527L999.211,565.627L953.166,565.627C943.204,565.627 935.115,573.715 935.115,583.678C935.115,593.64 943.204,601.728 953.166,601.728L1001.08,601.728L1001.15,608.184C1001.15,862.701 794.517,1069.34 540,1069.34C383.369,1069.34 244.872,991.08 161.52,871.524L169.246,871.524C179.208,871.524 187.296,863.436 187.296,853.473C187.296,843.511 179.208,835.423 169.246,835.423L138.71,835.423L138.651,835.323L125.372,835.323C115.41,835.323 107.322,827.235 107.322,817.273C107.322,808.992 112.91,802.006 120.517,799.884L120.261,799.309L224.769,799.309C234.731,799.309 242.819,791.221 242.819,781.258C242.819,771.296 234.731,763.208 224.769,763.208L93.846,763.208L93.055,763.248L56.103,763.248C45.589,763.248 37.053,754.712 37.053,744.198C37.053,733.684 45.589,725.149 56.103,725.149L93.836,725.149C84.058,687.811 78.847,648.601 78.847,608.184C78.847,353.667 285.483,147.031 540,147.031C740.967,147.031 912.081,275.862 975.183,455.353L1039.91,455.353C1050.42,455.353 1058.96,463.889 1058.96,474.402C1058.96,484.916 1050.42,493.452 1039.91,493.452L1021.46,493.452L1020.67,493.412L889.402,493.412C879.439,493.412 871.351,501.5 871.351,511.462C871.351,521.425 879.439,529.513 889.402,529.513L1020.67,529.513L1022.37,529.427ZM283.373,889.829C283.373,879.867 275.285,871.779 265.322,871.779L245.047,871.779C235.085,871.779 226.997,879.867 226.997,889.829C226.997,899.791 235.085,907.88 245.047,907.88L265.322,907.88C275.285,907.88 283.373,899.791 283.373,889.829ZM178.213,706.085C178.213,695.571 169.677,687.035 159.163,687.035L144.576,687.035C134.063,687.035 125.527,695.571 125.527,706.085C125.527,716.598 134.063,725.134 144.576,725.134L159.163,725.134C169.677,725.134 178.213,716.598 178.213,706.085ZM921.38,437.21C921.38,427.247 913.292,419.159 903.33,419.159L883.055,419.159C873.092,419.159 865.004,427.247 865.004,437.21C865.004,447.172 873.092,455.26 883.055,455.26L903.33,455.26C913.292,455.26 921.38,447.172 921.38,437.21Z" style="fill:rgb(98,203,209);"/>
                </g>
                <g transform="matrix(1,0,0,1,-2548.47,-6463.78)">
                    <path d="M3303.12,6925.17C3303.12,6925.17 3463.01,7225.63 3265.51,7398.86C3265.51,7398.86 3333.91,7227.32 3270.97,7105.99L3303.12,6925.17Z" style="fill:rgb(69,43,12);"/>
                    <g transform="matrix(2.27217,0,0,1.00692,-3502.69,92.7838)">
                        <path d="M3022.95,7019.55C3022.95,6875.28 2971.05,6758.15 2907.12,6758.15L2903.12,6758.15C2839.19,6758.15 2787.28,6875.28 2787.28,7019.55C2787.28,7163.82 2839.19,7280.95 2903.12,7280.95L2907.12,7280.95C2971.05,7280.95 3022.95,7163.82 3022.95,7019.55Z" style="fill:rgb(69,43,12);"/>
                    </g>
                    <g transform="matrix(1.21944,0,0,1.4344,-632.207,-927.448)">
                        <circle cx="3080.55" cy="5386.55" r="163.227" style="fill:rgb(69,43,12);"/>
                    </g>
                    <path d="M2857.24,6916.08C2857.24,6916.08 2691.66,7267.99 2954.37,7422.51C2954.37,7422.51 2903.95,7224.67 2928.6,7079.18L2857.24,6916.08Z" style="fill:rgb(69,43,12);"/>
                    <g transform="matrix(1.02141,0,0,1,-92.3844,-22.3162)">
                        <path d="M3308.2,7263.07L2872.21,7266.12C2872.21,7266.12 2868,7430.16 3070.25,7460.06C3087.24,7462.57 3124.78,7463.3 3141.65,7460.06C3310.67,7427.58 3308.2,7263.07 3308.2,7263.07Z"/>
                    </g>
                    <g transform="matrix(1.13668,-0.0173512,0.0161793,1.0599,-1014.02,6907.07)">
                        <path d="M3700,160L3480,160L3480,342.032C3480,407.14 3529.29,460 3590,460L3616.31,460C3662.5,460 3700,419.784 3700,370.248L3700,160Z" style="fill:rgb(249,201,171);"/>
                    </g>
                    <g transform="matrix(1,0,0,1,-11.3623,-10.6756)">
                        <path d="M2900.67,7253.24C2900.67,7253.24 2920.36,7326.44 3030.85,7361.04C3108.98,7385.51 3222.53,7341.24 3250.09,7248.13" style="fill:none;stroke:black;stroke-width:96px;"/>
                    </g>
                    <g transform="matrix(1,0,0,1,-11.3623,-52.3991)">
                        <path d="M2912.62,7255.28C2912.62,7255.28 2918.38,7323.54 3028.86,7358.14C3106.99,7382.61 3185.2,7368.63 3219.52,7276.57" style="fill:none;stroke:black;stroke-width:30px;"/>
                    </g>
                    <path d="M3198.07,7138.65C3162.69,7263.06 3097.7,7351.67 3097.7,7351.67C3097.7,7351.67 2950.53,7251.86 2946.75,7104.82" style="fill:none;stroke:rgb(176,133,32);stroke-width:2px;"/>
                    <g transform="matrix(-0.43436,-0.0338786,-0.0414866,0.493716,4835.24,6910.55)">
                        <path d="M3700,256.73C3700,203.343 3650.71,160 3590,160C3529.29,160 3480,203.343 3480,256.73L3480,363.27C3480,416.657 3529.29,460 3590,460C3650.71,460 3700,416.657 3700,363.27L3700,256.73Z" style="fill:rgb(250,174,127);"/>
                    </g>
                    <g transform="matrix(-0.254157,-0.0234242,-0.0226024,0.31828,4183.83,6923.14)">
                        <path d="M3700,248.009C3700,199.435 3650.71,160 3590,160C3529.29,160 3480,199.435 3480,248.009L3480,371.991C3480,420.565 3529.29,460 3590,460C3650.71,460 3700,420.565 3700,371.991L3700,248.009Z" style="fill:rgb(229,134,75);"/>
                    </g>
                    <g transform="matrix(1,0,0,1,391.845,-18.1727)">
                        <circle cx="2864.06" cy="7039.14" r="25.693" style="fill:none;stroke:white;stroke-width:10px;"/>
                    </g>
                    <g transform="matrix(0.43436,-0.0338786,0.0414866,0.493716,1685.98,6910.44)">
                        <path d="M3590,460C3603.73,460 3581.12,403.258 3581.12,403.258C3581.12,403.258 3490.47,410.355 3507.71,427.434C3527.87,447.406 3557.28,460 3590,460Z" style="fill:rgb(225,151,104);"/>
                    </g>
                    <g transform="matrix(1,0,0,1,391.845,-18.1727)">
                        <path d="M2864.06,7013.44C2878.24,7013.44 2889.76,7024.95 2889.76,7039.14C2889.76,7053.32 2878.24,7064.83 2864.06,7064.83C2849.88,7064.83 2838.37,7053.32 2838.37,7039.14" style="fill:none;stroke:rgb(255,207,96);stroke-width:10px;"/>
                    </g>
                    <g transform="matrix(1.22387,-0.0186823,0.0127221,0.833424,-1320.31,6886.95)">
                        <path d="M3700,160L3480,160L3480,280.445C3480,379.544 3534.79,460 3602.27,460C3656.21,460 3700,395.694 3700,316.488L3700,160Z" style="fill:rgb(250,174,127);"/>
                    </g>
                    <g transform="matrix(1.35661,-0.0207085,0.0130661,0.855956,-1788.29,6863.39)">
                        <path d="M3700,160L3480,160L3480,279.151C3480,378.964 3531.13,460 3594.11,460C3652.55,460 3700,384.798 3700,292.17L3700,160Z" style="fill:rgb(229,134,75);"/>
                    </g>
                    <g transform="matrix(1,0,0,1,62.051,-27.838)">
                        <path d="M2818.45,7000.12C2805.5,7041.02 2673.44,7376.69 2938.12,7413.07C2938.12,7413.07 2888.76,7346.29 2898.78,7274.88C2902.79,7246.26 2918.25,7212.83 2916.07,7182.28C2913.64,7148.36 2886.89,7107.49 2892.95,7082.33L2818.45,7000.12Z" style="fill:rgb(69,43,12);"/>
                    </g>
                    <g transform="matrix(1,0,0,1,1147.27,-1370.48)">
                        <path d="M1800.95,8595.88C1800.95,8595.88 1823.78,8557.79 1814.4,8496.28C1813.77,8492.19 1809.94,8489.38 1805.85,8490C1801.76,8490.62 1798.94,8494.45 1799.57,8498.54C1808.01,8553.9 1788.03,8588.25 1788.03,8588.25C1785.93,8591.82 1787.11,8596.42 1790.68,8598.53C1794.24,8600.63 1798.84,8599.45 1800.95,8595.88Z" style="fill:rgb(115,81,40);"/>
                    </g>
                    <g transform="matrix(1.62452,0.0616047,-0.0690824,1.82171,-2707.45,6111.83)">
                        <path d="M3700,258.093C3700,203.954 3650.71,160 3590,160C3529.29,160 3480,203.954 3480,258.093L3480,361.907C3480,416.046 3529.29,460 3590,460C3650.71,460 3700,416.046 3700,361.907L3700,258.093Z" style="fill:rgb(249,201,171);"/>
                    </g>
                    <g transform="matrix(17.9154,-0.440301,0.208701,8.49183,-51905.3,-59157.8)">
                        <path d="M2989.79,7939.19C2989.79,7936.9 2988.91,7935.05 2987.83,7935.05L2968.23,7935.05C2967.15,7935.05 2966.27,7936.9 2966.27,7939.19C2966.27,7941.47 2967.15,7943.33 2968.23,7943.33L2987.83,7943.33C2988.91,7943.33 2989.79,7941.47 2989.79,7939.19Z" style="fill:url(#_Radial1);"/>
                    </g>
                    <g transform="matrix(0.43436,-0.0338786,0.0414866,0.493716,1321.54,6922.27)">
                        <path d="M3700,256.73C3700,203.343 3650.71,160 3590,160C3529.29,160 3480,203.343 3480,256.73L3480,363.27C3480,416.657 3529.29,460 3590,460C3650.71,460 3700,416.657 3700,363.27L3700,256.73Z" style="fill:rgb(249,201,171);"/>
                    </g>
                    <g transform="matrix(0.254157,-0.0234242,0.0226024,0.31828,1972.95,6934.87)">
                        <path d="M3700,248.009C3700,199.435 3650.71,160 3590,160C3529.29,160 3480,199.435 3480,248.009L3480,371.991C3480,420.565 3529.29,460 3590,460C3650.71,460 3700,420.565 3700,371.991L3700,248.009Z" style="fill:rgb(250,174,127);"/>
                    </g>
                    <g transform="matrix(0.113615,-0.0104713,0.0160392,0.225859,2494.44,6919.37)">
                        <path d="M3700,215.441C3700,184.842 3650.71,160 3590,160C3529.29,160 3480,184.842 3480,215.441L3480,404.559C3480,435.158 3529.29,460 3590,460C3650.71,460 3700,435.158 3700,404.559L3700,215.441Z" style="fill:rgb(229,134,75);"/>
                    </g>
                    <g transform="matrix(2.46783,0.00140256,0.0275077,1.89292,-5836.02,6362.92)">
                        <path d="M3607.12,259.237C3607.12,255.583 3604.85,252.616 3602.04,252.616L3573,252.616C3570.2,252.616 3567.92,255.583 3567.92,259.237C3567.92,262.891 3570.2,265.858 3573,265.858L3602.04,265.858C3604.85,265.858 3607.12,262.891 3607.12,259.237Z" style="fill:rgb(250,174,127);"/>
                    </g>
                    <g transform="matrix(2.15925,0.0057288,0.0108416,1.04957,-4730.02,6560.35)">
                        <path d="M3607.12,259.237C3607.12,255.583 3605.68,252.616 3603.9,252.616L3571.14,252.616C3569.37,252.616 3567.92,255.583 3567.92,259.237C3567.92,262.891 3569.37,265.858 3571.14,265.858L3603.9,265.858C3605.68,265.858 3607.12,262.891 3607.12,259.237Z" style="fill:rgb(229,134,75);"/>
                    </g>
                    <g transform="matrix(1.20548,-0.0599522,0.140273,2.83223,-1339.1,6377.72)">
                        <path d="M3607.12,259.237C3607.12,255.583 3600.15,252.616 3591.57,252.616L3583.48,252.616C3574.89,252.616 3567.92,255.583 3567.92,259.237C3567.92,262.891 3574.89,265.858 3583.48,265.858L3591.57,265.858C3600.15,265.858 3607.12,262.891 3607.12,259.237Z" style="fill:rgb(250,174,127);"/>
                    </g>
                    <g transform="matrix(1.20446,-0.0599017,0.137358,2.77338,-1333.73,6388.65)">
                        <path d="M3607.12,259.237C3607.12,255.583 3600.29,252.616 3591.88,252.616L3583.17,252.616C3574.76,252.616 3567.92,255.583 3567.92,259.237C3567.92,262.891 3574.76,265.858 3583.17,265.858L3591.88,265.858C3600.29,265.858 3607.12,262.891 3607.12,259.237Z"/>
                    </g>
                    <g transform="matrix(0.0328591,0.310671,-1.03462,0.109884,3163.27,5745.67)">
                        <path d="M3607.12,258.501C3607.12,255.253 3598.34,252.616 3587.52,252.616C3576.71,252.616 3567.92,255.253 3567.92,258.501L3567.92,259.973C3567.92,263.221 3576.71,265.858 3587.52,265.858C3598.34,265.858 3607.12,263.221 3607.12,259.973L3607.12,258.501Z" style="fill:rgb(204,204,204);"/>
                    </g>
                    <g transform="matrix(1.20548,-0.0599522,0.140273,2.83223,-1169.49,6371.73)">
                        <path d="M3607.12,259.237C3607.12,255.583 3600.15,252.616 3591.57,252.616L3583.48,252.616C3574.89,252.616 3567.92,255.583 3567.92,259.237C3567.92,262.891 3574.89,265.858 3583.48,265.858L3591.57,265.858C3600.15,265.858 3607.12,262.891 3607.12,259.237Z" style="fill:rgb(250,174,127);"/>
                    </g>
                    <g transform="matrix(1.20446,-0.0599017,0.137358,2.77338,-1164.12,6382.66)">
                        <path d="M3607.12,259.237C3607.12,255.583 3600.29,252.616 3591.88,252.616L3583.17,252.616C3574.76,252.616 3567.92,255.583 3567.92,259.237C3567.92,262.891 3574.76,265.858 3583.17,265.858L3591.88,265.858C3600.29,265.858 3607.12,262.891 3607.12,259.237Z"/>
                    </g>
                    <g transform="matrix(0.0328591,0.310671,-1.03462,0.109884,3332.88,5739.68)">
                        <path d="M3607.12,258.501C3607.12,255.253 3598.34,252.616 3587.52,252.616C3576.71,252.616 3567.92,255.253 3567.92,258.501L3567.92,259.973C3567.92,263.221 3576.71,265.858 3587.52,265.858C3598.34,265.858 3607.12,263.221 3607.12,259.973L3607.12,258.501Z" style="fill:rgb(204,204,204);"/>
                    </g>
                    <g transform="matrix(2.83378,-0.000437396,0.000329589,2.13533,-7142.43,6284.12)">
                        <path d="M3607.12,259.237C3607.12,255.583 3604.89,252.616 3602.13,252.616L3572.91,252.616C3570.16,252.616 3567.92,255.583 3567.92,259.237C3567.92,262.891 3570.16,265.858 3572.91,265.858L3602.13,265.858C3604.89,265.858 3607.12,262.891 3607.12,259.237Z"/>
                    </g>
                    <g transform="matrix(1.36691,-0.00694493,0.00393382,0.774261,-1894.77,6657.21)">
                        <path d="M3607.12,259.237C3607.12,255.583 3605.44,252.616 3603.37,252.616L3571.67,252.616C3569.6,252.616 3567.92,255.583 3567.92,259.237C3567.92,262.891 3569.6,265.858 3571.67,265.858L3603.37,265.858C3605.44,265.858 3607.12,262.891 3607.12,259.237Z" style="fill:rgb(204,204,204);"/>
                    </g>
                    <g transform="matrix(1.02201,0,0,1.03536,-110.658,1080.54)">
                        <path d="M3118.13,5328.12C3188.28,5406.42 2947.94,5644.59 2866.14,5714.73C2866.14,5714.73 2899.54,5659.95 2898.71,5623.02C2897.85,5584.72 2884.51,5513.81 2905.76,5450.53C2929.56,5379.68 2988.85,5260.63 3118.13,5328.12Z" style="fill:rgb(69,43,12);"/>
                    </g>
                    <g transform="matrix(2.46487,-0.120851,0.121246,1.88924,-5683.33,6794.98)">
                        <path d="M3607.12,259.237C3607.12,255.583 3604.85,252.616 3602.04,252.616L3573,252.616C3570.2,252.616 3567.92,255.583 3567.92,259.237C3567.92,262.891 3570.2,265.858 3573,265.858L3602.04,265.858C3604.85,265.858 3607.12,262.891 3607.12,259.237Z" style="fill:rgb(250,174,127);"/>
                    </g>
                    <g transform="matrix(2.15688,-0.101244,0.0628223,1.04775,-4568.91,6937.38)">
                        <path d="M3607.12,259.237C3607.12,255.583 3605.68,252.616 3603.9,252.616L3571.14,252.616C3569.37,252.616 3567.92,255.583 3567.92,259.237C3567.92,262.891 3569.37,265.858 3571.14,265.858L3603.9,265.858C3605.68,265.858 3607.12,262.891 3607.12,259.237Z" style="fill:rgb(229,134,75);"/>
                    </g>
                    <g transform="matrix(2.83028,-0.140818,0.10611,2.13269,-6992.04,6780.99)">
                        <path d="M3607.12,259.237C3607.12,255.583 3604.89,252.616 3602.13,252.616L3572.91,252.616C3570.16,252.616 3567.92,255.583 3567.92,259.237C3567.92,262.891 3570.16,265.858 3572.91,265.858L3602.13,265.858C3604.89,265.858 3607.12,262.891 3607.12,259.237Z"/>
                    </g>
                    <g transform="matrix(0.988483,-0.0540639,0.0422846,0.773115,-396.224,6820.59)">
                        <path d="M3607.12,259.237C3607.12,255.583 3604.8,252.616 3601.94,252.616L3573.1,252.616C3570.24,252.616 3567.92,255.583 3567.92,259.237C3567.92,262.891 3570.24,265.858 3573.1,265.858L3601.94,265.858C3604.8,265.858 3607.12,262.891 3607.12,259.237Z" style="fill:rgb(204,204,204);"/>
                    </g>
                    <g transform="matrix(0.500363,0.0725323,0.122147,-0.842626,4165.12,7793.06)">
                        <path d="M-2332.62,688.436C-2332.62,688.436 -2288.61,650.909 -2212.11,684.969" style="fill:none;stroke:rgb(233,129,114);stroke-width:26.79px;"/>
                    </g>
                    <g transform="matrix(1,0,0,1,-121.65,-0.0304707)">
                        <path d="M3125.69,6883.89C3125.69,6883.89 3122.6,6884.83 3118.93,6880.47" style="fill:none;stroke:black;stroke-width:5px;"/>
                    </g>
                    <g transform="matrix(-1,0,0,1,6337.93,-5.55457)">
                        <path d="M3125.69,6883.89C3125.69,6883.89 3122.6,6884.83 3118.93,6880.47" style="fill:none;stroke:black;stroke-width:5px;"/>
                    </g>
                    <g transform="matrix(1,0,0,1,-123.686,7.84677)">
                        <path d="M3125.69,6883.89C3125.69,6883.89 3121.27,6885.23 3117.6,6880.87" style="fill:none;stroke:black;stroke-width:5px;"/>
                    </g>
                    <g transform="matrix(-1,0,0,1,6339.96,2.32267)">
                        <path d="M3125.69,6883.89C3125.69,6883.89 3121.27,6885.23 3117.6,6880.87" style="fill:none;stroke:black;stroke-width:5px;"/>
                    </g>
                    <g transform="matrix(2.03866,0,0,2.03866,-2923.82,-7265.11)">
                        <circle cx="2837.64" cy="6992.8" r="3.547" style="fill:white;stroke:rgb(255,218,134);stroke-width:1.47px;"/>
                    </g>
                    <g transform="matrix(2.03866,0,0,2.03866,-2488.97,-7276.08)">
                        <circle cx="2837.64" cy="6992.8" r="3.547" style="fill:white;stroke:rgb(255,218,134);stroke-width:1.47px;"/>
                    </g>
                    <g transform="matrix(1,0,0,1,27.3969,-6.33934)">
                        <circle cx="2864.06" cy="7039.14" r="25.693" style="fill:none;stroke:rgb(255,207,96);stroke-width:10px;"/>
                    </g>
                    <g transform="matrix(0.43436,-0.0338786,0.0414866,0.493716,1321.54,6922.27)">
                        <path d="M3590,460C3603.73,460 3581.12,403.258 3581.12,403.258C3581.12,403.258 3490.47,410.355 3507.71,427.434C3527.87,447.406 3557.28,460 3590,460Z" style="fill:rgb(249,201,171);"/>
                    </g>
                    <g transform="matrix(1,0,0,1,27.3969,-6.33934)">
                        <path d="M2864.06,7013.44C2878.24,7013.44 2889.76,7024.95 2889.76,7039.14C2889.76,7053.32 2878.24,7064.83 2864.06,7064.83C2849.88,7064.83 2838.37,7053.32 2838.37,7039.14" style="fill:none;stroke:rgb(255,207,96);stroke-width:10px;"/>
                    </g>
                    <g transform="matrix(1,0,0,1,28.2306,-7.17202)">
                        <path d="M2864.06,7013.44C2878.24,7013.44 2889.76,7024.95 2889.76,7039.14" style="fill:none;stroke:rgb(255,236,191);stroke-width:4px;"/>
                    </g>
                    <path d="M3079.21,6625.47C3079.21,6625.47 3172.34,6870.76 3327.71,6927.29C3327.71,6927.29 3247.78,6772.45 3201.6,6633.46C3201.6,6633.46 3079.81,6551.76 3079.21,6625.47Z" style="fill:rgb(69,43,12);"/>
                    <g transform="matrix(1,0,0,1,-64.2347,-15.6738)">
                        <path d="M3110.22,6642.16C3110.22,6642.16 3173.19,6811.67 3276.67,6885.48C3276.67,6885.48 3220.53,6779.86 3201.6,6633.46C3201.6,6633.46 3110.82,6568.45 3110.22,6642.16Z" style="fill:rgb(69,43,12);"/>
                    </g>
                    <g transform="matrix(-0.559163,0,0,0.886738,4823.06,765.199)">
                        <path d="M3112.36,6671.55C3112.36,6671.55 3119.8,6798.81 3353.04,6908.54C3353.04,6908.54 3238.98,6807.81 3201.6,6633.46C3201.6,6633.46 3112.97,6597.83 3112.36,6671.55Z" style="fill:rgb(69,43,12);"/>
                    </g>
                    <path d="M3189.12,6651.93C3189.12,6651.93 3251.4,6844.46 3285.64,6848.78C3285.64,6848.78 3307.05,6835.42 3307.05,6796.23C3307.05,6757.03 3242.35,6625.2 3189.12,6651.93Z" style="fill:rgb(69,43,12);"/>
                    <g transform="matrix(0.00570722,0.654013,-2.73714,0.0238855,3818.94,4625.62)">
                        <path d="M3607.12,257.299C3607.12,254.715 3598.34,252.616 3587.52,252.616C3576.71,252.616 3567.92,254.715 3567.92,257.299L3567.92,261.175C3567.92,263.76 3576.71,265.858 3587.52,265.858C3598.34,265.858 3607.12,263.76 3607.12,261.175L3607.12,257.299Z" style="fill:rgb(229,134,75);"/>
                    </g>
                    <g transform="matrix(0.00570722,0.654013,-2.73714,0.0238855,3821.13,4621.41)">
                        <path d="M3607.12,257.299C3607.12,254.715 3598.34,252.616 3587.52,252.616C3576.71,252.616 3567.92,254.715 3567.92,257.299L3567.92,261.175C3567.92,263.76 3576.71,265.858 3587.52,265.858C3598.34,265.858 3607.12,263.76 3607.12,261.175L3607.12,257.299Z" style="fill:rgb(250,174,127);"/>
                    </g>
                    <g transform="matrix(0.00209116,0.239634,-0.94538,0.00824981,3363.04,6107.41)">
                        <path d="M3607.12,257.584C3607.12,254.842 3598.34,252.616 3587.52,252.616C3576.71,252.616 3567.92,254.842 3567.92,257.584L3567.92,260.89C3567.92,263.632 3576.71,265.858 3587.52,265.858C3598.34,265.858 3607.12,263.632 3607.12,260.89L3607.12,257.584Z" style="fill:rgb(247,210,187);"/>
                    </g>
                    <g transform="matrix(1.05544,0,0,1,-109.919,15.7524)">
                        <path d="M3047.88,7341C3047.88,7338.43 3045.9,7336.34 3043.45,7336.34L3034.61,7336.34C3032.17,7336.34 3030.19,7338.43 3030.19,7341L3030.19,7351.64C3030.19,7354.21 3032.17,7356.31 3034.61,7356.31L3043.45,7356.31C3045.9,7356.31 3047.88,7354.21 3047.88,7351.64L3047.88,7341Z" style="fill:rgb(224,217,201);stroke:rgb(177,141,43);stroke-width:1.9px;"/>
                    </g>
                    <g transform="matrix(1.43834,0,0,1.43834,-1359.15,-3228.7)">
                        <circle cx="3096.35" cy="7366.04" r="2.633" style="fill:white;"/>
                    </g>
                    <g transform="matrix(1,0,0,1,1152.81,-1358.76)">
                        <path d="M2026.64,7966.64C2026.64,7966.64 2108.46,8003.35 2131.78,8111.65C2132.78,8116.32 2137.38,8119.29 2142.05,8118.28C2146.71,8117.28 2149.68,8112.68 2148.68,8108.01C2123.32,7990.24 2033.66,7950.84 2033.66,7950.84C2029.3,7948.91 2024.19,7950.88 2022.26,7955.24C2020.32,7959.6 2022.29,7964.71 2026.65,7966.64L2026.64,7966.64Z" style="fill:rgb(115,81,40);"/>
                    </g>
                    <g transform="matrix(1,0,0,1,-1.18945,-2.82201)">
                        <path d="M2895.68,6906.88C2895.68,6906.88 2960.03,6842.19 2982.35,6804.12C2984.59,6800.31 2983.31,6795.41 2979.5,6793.17C2975.69,6790.94 2970.78,6792.22 2968.55,6796.03C2946.9,6832.96 2884.35,6895.58 2884.35,6895.58C2881.23,6898.71 2881.24,6903.78 2884.36,6906.9C2887.49,6910.01 2892.56,6910.01 2895.68,6906.88Z" style="fill:rgb(115,81,40);"/>
                    </g>
                    <g transform="matrix(1,0,0,1,-9.38269,-5.56567)">
                        <path d="M3325.33,7083.13C3325.33,7083.13 3363.32,7157.48 3320.66,7278.01C3319.19,7282.18 3321.37,7286.75 3325.54,7288.22C3329.7,7289.7 3334.27,7287.51 3335.75,7283.35C3381.18,7154.98 3339.54,7075.76 3339.54,7075.76C3337.51,7071.84 3332.67,7070.31 3328.75,7072.34C3324.83,7074.38 3323.3,7079.21 3325.33,7083.13Z" style="fill:rgb(115,81,40);"/>
                    </g>
                </g>
            </g>
        </g>
    </g>
    <defs>
        <radialGradient id="_Radial1" cx="0" cy="0" r="1" gradientUnits="userSpaceOnUse" gradientTransform="matrix(11.7323,-0.158706,0.0729754,4.13215,2978.59,7939.49)"><stop offset="0" style="stop-color:rgb(255,184,154);stop-opacity:1"/><stop offset="1" style="stop-color:rgb(255,184,154);stop-opacity:0"/></radialGradient>
    </defs>
</svg>
